%YAML 1.1
%TAG !u! tag:unity3d.com,2011:
--- !u!114 &11400000
MonoBehaviour:
  m_ObjectHideFlags: 0
  m_CorrespondingSourceObject: {fileID: 0}
  m_PrefabInstance: {fileID: 0}
  m_PrefabAsset: {fileID: 0}
  m_GameObject: {fileID: 0}
  m_Enabled: 1
  m_EditorHideFlags: 0
  m_Script: {fileID: 11500000, guid: ac139f702888f5f429689ef2b5142a03, type: 3}
  m_Name: 30
  m_EditorClassIdentifier: 
  typZadania: 0
  trescZadania: "Kt\xF3ra jest godzina na zegarze?\n\n__"
  prawidlowaOdpowiedz: 08:20
  zlaOdpowiedz1: 09:20
  zlaOdpowiedz2: 04:40
  zlaOdpowiedz3: 04:08
  zdjecieDoZadania: {fileID: 21300000, guid: e83a9f698e575964a91b9b7727154d8b, type: 3}
