%YAML 1.1
%TAG !u! tag:unity3d.com,2011:
--- !u!114 &11400000
MonoBehaviour:
  m_ObjectHideFlags: 0
  m_CorrespondingSourceObject: {fileID: 0}
  m_PrefabInstance: {fileID: 0}
  m_PrefabAsset: {fileID: 0}
  m_GameObject: {fileID: 0}
  m_Enabled: 1
  m_EditorHideFlags: 0
  m_Script: {fileID: 11500000, guid: ac139f702888f5f429689ef2b5142a03, type: 3}
  m_Name: 41
  m_EditorClassIdentifier: 
  typZadania: 0
  trescZadania: "Przet\u0142umacz na j\u0119zyk angielski:\n\nniebieski - __"
  prawidlowaOdpowiedz: blue
  zlaOdpowiedz1: 
  zlaOdpowiedz2: 
  zlaOdpowiedz3: 
  zdjecieDoZadania: {fileID: 0}
