%YAML 1.1
%TAG !u! tag:unity3d.com,2011:
--- !u!114 &11400000
MonoBehaviour:
  m_ObjectHideFlags: 0
  m_CorrespondingSourceObject: {fileID: 0}
  m_PrefabInstance: {fileID: 0}
  m_PrefabAsset: {fileID: 0}
  m_GameObject: {fileID: 0}
  m_Enabled: 1
  m_EditorHideFlags: 0
  m_Script: {fileID: 11500000, guid: 55db08d9508f5254ab046497a503789d, type: 3}
  m_Name: 12
  m_EditorClassIdentifier: 
  isThisSingleInputTask: 0
  singleInputTask: 
  singleInputTaskAnswer: 
  isThisOneOfManyTask: 1
  oneOfManyTask: "Przet\u0142umacz z j\u0119zyka angielskiego:\n\nboy - __"
  oneOfManyTaskSprite: {fileID: 0}
  oneOfManyTaskAnswers:
  - "ch\u0142opiec"
  - dziewczyna
  - dom
  oneOfManyTaskImageAnswers: []
