%YAML 1.1
%TAG !u! tag:unity3d.com,2011:
--- !u!114 &11400000
MonoBehaviour:
  m_ObjectHideFlags: 0
  m_CorrespondingSourceObject: {fileID: 0}
  m_PrefabInstance: {fileID: 0}
  m_PrefabAsset: {fileID: 0}
  m_GameObject: {fileID: 0}
  m_Enabled: 1
  m_EditorHideFlags: 0
  m_Script: {fileID: 11500000, guid: 55db08d9508f5254ab046497a503789d, type: 3}
  m_Name: 6
  m_EditorClassIdentifier: 
  isThisSingleInputTask: 0
  singleInputTask: 
  singleInputTaskAnswer: 
  isThisOneOfManyTask: 1
  oneOfManyTask: "Jakie kolory nale\u017Cy po\u0142\u0105czy\u0107, by uzyska\u0107
    kolor r\xF3\u017Cowy?\n"
  oneOfManyTaskSprite: {fileID: 0}
  oneOfManyTaskAnswers:
  - "Czerwony i Bia\u0142y"
  - "Czerwony i \u017C\xF3\u0142ty"
  - Czerwony i zielony
  oneOfManyTaskImageAnswers: []
