%YAML 1.1
%TAG !u! tag:unity3d.com,2011:
--- !u!114 &11400000
MonoBehaviour:
  m_ObjectHideFlags: 0
  m_CorrespondingSourceObject: {fileID: 0}
  m_PrefabInstance: {fileID: 0}
  m_PrefabAsset: {fileID: 0}
  m_GameObject: {fileID: 0}
  m_Enabled: 1
  m_EditorHideFlags: 0
  m_Script: {fileID: 11500000, guid: 55db08d9508f5254ab046497a503789d, type: 3}
  m_Name: 9
  m_EditorClassIdentifier: 
  isThisSingleInputTask: 1
  singleInputTask: "Ania mia\u0142a 3 jab\u0142ka. Babcia da\u0142a jej 2 gruszki
    i 4 \u015Bliwki. Wieczorem brat Ani zjad\u0142 1 jab\u0142ko i 2 \u015Bliwki.\nIle
    owoc\xF3w zosta\u0142o Ani?\n\nAni zosta\u0142o __ owoc\xF3w."
  singleInputTaskAnswer: 6
  isThisOneOfManyTask: 0
  oneOfManyTask: 
  oneOfManyTaskSprite: {fileID: 0}
  oneOfManyTaskAnswers: []
  oneOfManyTaskImageAnswers: []
