%YAML 1.1
%TAG !u! tag:unity3d.com,2011:
--- !u!114 &11400000
MonoBehaviour:
  m_ObjectHideFlags: 0
  m_CorrespondingSourceObject: {fileID: 0}
  m_PrefabInstance: {fileID: 0}
  m_PrefabAsset: {fileID: 0}
  m_GameObject: {fileID: 0}
  m_Enabled: 1
  m_EditorHideFlags: 0
  m_Script: {fileID: 11500000, guid: 55db08d9508f5254ab046497a503789d, type: 3}
  m_Name: 8
  m_EditorClassIdentifier: 
  isThisSingleInputTask: 1
  singleInputTask: "Jaki jest pierwszy dzie\u0144 tygodnia?"
  singleInputTaskAnswer: "poniedzia\u0142ek"
  imgTask: {fileID: 0}
  isThisOneOfManyTask: 0
  oneOfManyTask: 
  oneOfManyTaskSprite: {fileID: 0}
  oneOfManyTaskAnswers: []
  oneOfManyTaskImageAnswers: []
