%YAML 1.1
%TAG !u! tag:unity3d.com,2011:
--- !u!114 &11400000
MonoBehaviour:
  m_ObjectHideFlags: 0
  m_CorrespondingSourceObject: {fileID: 0}
  m_PrefabInstance: {fileID: 0}
  m_PrefabAsset: {fileID: 0}
  m_GameObject: {fileID: 0}
  m_Enabled: 1
  m_EditorHideFlags: 0
  m_Script: {fileID: 11500000, guid: 55db08d9508f5254ab046497a503789d, type: 3}
  m_Name: 23
  m_EditorClassIdentifier: 
  isThisSingleInputTask: 1
  singleInputTask: "Ile tr\xF3jk\u0105t\xF3w widzisz na obrazku?"
  singleInputTaskAnswer: 3
  imgTask: {fileID: 21300000, guid: 2bed233f37304054ab17293a9b0a9212, type: 3}
  isThisOneOfManyTask: 0
  oneOfManyTask: 
  oneOfManyTaskSprite: {fileID: 0}
  oneOfManyTaskAnswers: []
  oneOfManyTaskImageAnswers: []
