%YAML 1.1
%TAG !u! tag:unity3d.com,2011:
--- !u!114 &11400000
MonoBehaviour:
  m_ObjectHideFlags: 0
  m_CorrespondingSourceObject: {fileID: 0}
  m_PrefabInstance: {fileID: 0}
  m_PrefabAsset: {fileID: 0}
  m_GameObject: {fileID: 0}
  m_Enabled: 1
  m_EditorHideFlags: 0
  m_Script: {fileID: 11500000, guid: 55db08d9508f5254ab046497a503789d, type: 3}
  m_Name: 19
  m_EditorClassIdentifier: 
  isThisSingleInputTask: 0
  singleInputTask: 
  singleInputTaskAnswer: 
  imgTask: {fileID: 0}
  isThisOneOfManyTask: 1
  oneOfManyTask: "Kt\xF3ra jest godzina na zegarze?\n\n__"
  oneOfManyTaskSprite: {fileID: 21300000, guid: a82499d9c4d187941a3bfcc3d2e9ee64,
    type: 3}
  oneOfManyTaskAnswers:
  - 02:00
  - 12:02
  - 12:10
  oneOfManyTaskImageAnswers: []
