%YAML 1.1
%TAG !u! tag:unity3d.com,2011:
--- !u!114 &11400000
MonoBehaviour:
  m_ObjectHideFlags: 0
  m_CorrespondingSourceObject: {fileID: 0}
  m_PrefabInstance: {fileID: 0}
  m_PrefabAsset: {fileID: 0}
  m_GameObject: {fileID: 0}
  m_Enabled: 1
  m_EditorHideFlags: 0
  m_Script: {fileID: 11500000, guid: 55db08d9508f5254ab046497a503789d, type: 3}
  m_Name: 9
  m_EditorClassIdentifier: 
  isThisSingleInputTask: 0
  singleInputTask: 
  singleInputTaskAnswer: 
  imgTask: {fileID: 0}
  isThisOneOfManyTask: 1
  oneOfManyTask: "Przet\u0142umacz na j\u0119zyk angielski:\n\nJa lubi\u0119 - __"
  oneOfManyTaskSprite: {fileID: 0}
  oneOfManyTaskAnswers:
  - I like
  - I play
  - I sing
  oneOfManyTaskImageAnswers: []
