%YAML 1.1
%TAG !u! tag:unity3d.com,2011:
--- !u!114 &11400000
MonoBehaviour:
  m_ObjectHideFlags: 0
  m_CorrespondingSourceObject: {fileID: 0}
  m_PrefabInstance: {fileID: 0}
  m_PrefabAsset: {fileID: 0}
  m_GameObject: {fileID: 0}
  m_Enabled: 1
  m_EditorHideFlags: 0
  m_Script: {fileID: 11500000, guid: 55db08d9508f5254ab046497a503789d, type: 3}
  m_Name: 10
  m_EditorClassIdentifier: 
  isThisSingleInputTask: 0
  singleInputTask: 
  singleInputTaskAnswer: 
  imgTask: {fileID: 0}
  isThisOneOfManyTask: 1
  oneOfManyTask: "Z podanych zdj\u0119\u0107 wybierz \u017Co\u0142\u0119dzia."
  oneOfManyTaskSprite: {fileID: 0}
  oneOfManyTaskAnswers: []
  oneOfManyTaskImageAnswers:
  - {fileID: 21300000, guid: 1ea866428eab3ce4e85a6758532ad80a, type: 3}
  - {fileID: 21300000, guid: cb2fa3c811b0ca14784f0db3b8ca2f44, type: 3}
  - {fileID: 21300000, guid: 14f259491e1897c4082cd7ae5ce50f96, type: 3}
